Chapter 2 Acoustic data pre-processing | Environmental sensor data management and analysis with R
…
# Join it to the original tibble
locss <- out %>%
  inner_join(., locs, by = c("location" = "location")) %>%
  # Now sample 10 locations per BCR 
  group_by(BCRNAME) %>%
  sample_n(10, replace = F)

> locss %>% select(location, BCRNAME)

Simple feature collection with 50 features and 2 fields
Geometry type: POINT
Dimension:     XY
Bounding box:  xmin: -118.4339 ymin: 49.20788 xmax: -110.1006 ymax: 59.94313
Geodetic CRS:  NAD83
# A tibble: 50 × 3
# Groups:   BCRNAME [5]
   location BCRNAME                            geometry
   <chr>    <chr>                           <POINT [°]>
 1 270-NE   BOREAL SOFTWOOD SHIELD (-111.1606 58.02175)
 2 182-SE   BOREAL SOFTWOOD SHIELD  (-110.6437 58.5611)
 3 272-NE   BOREAL SOFTWOOD SHIELD (-110.4663 57.99359)
 4 182-NE   BOREAL SOFTWOOD SHIELD  (-110.6437 58.5611)
 5 242-SE   BOREAL SOFTWOOD SHIELD  (-110.411 58.15395)
 6 154-SE   BOREAL SOFTWOOD SHIELD (-110.1852 58.70439)
 7 272-NW   BOREAL SOFTWOOD SHIELD (-110.4663 57.99359)
 8 272-SW   BOREAL SOFTWOOD SHIELD (-110.4663 57.99359)
 9 241-NW   BOREAL SOFTWOOD SHIELD (-110.7115 58.16154)
10 270-SW   BOREAL SOFTWOOD SHIELD (-111.1606 58.02175)
# … with 40 more rows
…
distances <- wt_location_distances(input_from_tibble = bu_badr)

> # Filter points less then 100 meters apart
> distances %>%
+   filter(distance < 100)

# A tibble: 26 × 3
   location_from distance_to distance
   <chr>         <chr>          <dbl>
 1 2-0-A2        BG-9-84        42.8 
 2 2-0-A12       BG-9-75         8.86
 3 2-0-A30       BG-9-83        74.0 
 4 2-0-A32       BG-9-92        17.8 
 5 2-0-A50       BG-9-74         5.46
 6 2-0-A85       BG-9-97        93.3 
 7 2-0-A86       BG-9-95         2.63
 8 2-0-A87       BG-9-94        34.2 
 9 2-0-A88       BG-9-93        34.3 
10 2-0-A90       BG-9-85        16.6 
# … with 16 more rows
…
