Chapter 4 Acoustic data analysis | Environmental sensor data management and analysis with R
…
Once all tasks are transcribed, access the Data Downloads page and extract the zip file to obtain the summary report and *_recording_birdnet_summary.csv*. These files will be used to intersect the human-created tags with the results obtained from BirdNET.

# Load and prepare the BirdNET data
raw_data

## # A tibble: 33,048 × 8
##    organization location recording_date      audio_length scien…¹ windo…² windo…³ confi…⁴
##    <chr>        <chr>    <dttm>                     <dbl> <chr>     <dbl>   <dbl>   <dbl>
##  1 ABMI         1081-NE  2021-04-06 07:29:00          600 Branta…      51      54    71.7
##  2 ABMI         1081-NE  2021-04-06 07:29:00          600 Branta…     201     204    45.4
##  3 ABMI         1081-NE  2021-04-06 07:29:00          600 Branta…     207     210    40.4
##  4 ABMI         1081-NE  2021-04-06 07:29:00          600 Branta…     210     213    45.6
##  5 ABMI         1081-NE  2021-04-06 07:29:00          600 Poecil…     561     564    51.1
##  6 ABMI         1081-NE  2021-04-06 07:29:00          600 Poecil…     564     567    44.4
##  7 ABMI         1081-NE  2021-04-06 07:29:00          600 Poecil…     567     570    44.2
##  8 ABMI         1081-NE  2021-04-06 07:29:00          600 Poecil…     570     573    73.7
##  9 ABMI         1081-NE  2021-04-06 07:29:00          600 Poecil…     573     576    51.3
## 10 ABMI         1081-NE  2021-04-06 07:29:00          600 Poecil…     576     579    86.1
## # … with 33,038 more rows, and abbreviated variable names ¹​scientific_name,
## #   ²​window_start_time, ³​window_end_time, ⁴​confidence
…
