Chapter 5 Setup the data from the report – change this once wt_auth() is working | Environmental sensor data management and analysis with R
…
Once all tasks are transcribed, access the Data Downloads page and extract the zip file to obtain the summary report and *_recording_birdnet_summary.csv*. These files will be used to intersect the human-created tags with the results obtained from BirdNET.

# Load and prepare the BirdNET data
raw_data

## # A tibble: 33,048 × 8
##    organization location recording_date      audio_length scientific_name      window_start_time window_…¹ confi…²
##    <chr>        <chr>    <dttm>                     <dbl> <chr>                            <dbl>     <dbl>   <dbl>
##  1 ABMI         1081-NE  2021-04-06 07:29:00          600 Branta canadensis                   51        54    71.7
##  2 ABMI         1081-NE  2021-04-06 07:29:00          600 Branta canadensis                  201       204    45.4
##  3 ABMI         1081-NE  2021-04-06 07:29:00          600 Branta canadensis                  207       210    40.4
##  4 ABMI         1081-NE  2021-04-06 07:29:00          600 Branta canadensis                  210       213    45.6
##  5 ABMI         1081-NE  2021-04-06 07:29:00          600 Poecile atricapillus               561       564    51.1
##  6 ABMI         1081-NE  2021-04-06 07:29:00          600 Poecile atricapillus               564       567    44.4
##  7 ABMI         1081-NE  2021-04-06 07:29:00          600 Poecile atricapillus               567       570    44.2
##  8 ABMI         1081-NE  2021-04-06 07:29:00          600 Poecile atricapillus               570       573    73.7
##  9 ABMI         1081-NE  2021-04-06 07:29:00          600 Poecile atricapillus               573       576    51.3
## 10 ABMI         1081-NE  2021-04-06 07:29:00          600 Poecile atricapillus               576       579    86.1
## # … with 33,038 more rows, and abbreviated variable names ¹​window_end_time, ²​confidence
…
fnn <- bind_rows(raw_data, fn)

fnn

## # A tibble: 41,882 × 13
##    organizat…¹ locat…² recording_date      audio…³ scien…⁴ windo…⁵ windo…⁶ confi…⁷ proje…⁸ obser…⁹ speci…˟ tag_s…˟
##    <chr>       <chr>   <dttm>                <dbl> <chr>     <dbl>   <dbl>   <dbl> <chr>   <chr>   <chr>     <dbl>
##  1 ABMI        1081-NE 2021-04-06 07:29:00     600 Branta…      51      54    71.7 <NA>    <NA>    <NA>         NA
##  2 ABMI        1081-NE 2021-04-06 07:29:00     600 Branta…     201     204    45.4 <NA>    <NA>    <NA>         NA
##  3 ABMI        1081-NE 2021-04-06 07:29:00     600 Branta…     207     210    40.4 <NA>    <NA>    <NA>         NA
##  4 ABMI        1081-NE 2021-04-06 07:29:00     600 Branta…     210     213    45.6 <NA>    <NA>    <NA>         NA
##  5 ABMI        1081-NE 2021-04-06 07:29:00     600 Poecil…     561     564    51.1 <NA>    <NA>    <NA>         NA
##  6 ABMI        1081-NE 2021-04-06 07:29:00     600 Poecil…     564     567    44.4 <NA>    <NA>    <NA>         NA
##  7 ABMI        1081-NE 2021-04-06 07:29:00     600 Poecil…     567     570    44.2 <NA>    <NA>    <NA>         NA
##  8 ABMI        1081-NE 2021-04-06 07:29:00     600 Poecil…     570     573    73.7 <NA>    <NA>    <NA>         NA
##  9 ABMI        1081-NE 2021-04-06 07:29:00     600 Poecil…     573     576    51.3 <NA>    <NA>    <NA>         NA
## 10 ABMI        1081-NE 2021-04-06 07:29:00     600 Poecil…     576     579    86.1 <NA>    <NA>    <NA>         NA
## # … with 41,872 more rows, 1 more variable: abundance <chr>, and abbreviated variable names ¹​organization,
## #   ²​location, ³​audio_length, ⁴​scientific_name, ⁵​window_start_time, ⁶​window_end_time, ⁷​confidence, ⁸​project_name,
## #   ⁹​observer, ˟​species_code, ˟​tag_start_s
…
