Acoustic pre-processing
…
You might want to select recordings between certain times of day or
year, or filter recordings based on some criteria.

# Set the directory path
load("book.RData")
#save.image("book.RData")

files
#> # A tibble: 1,041 × 11
#>    file_path     size_Mb unsafe file_name location recording_date_time file_type
#>    <chr>           <dbl> <chr>  <chr>     <chr>    <dttm>              <chr>    
#>  1 /volumes/bud…    3.51 Safe   228-NE_2… 228-NE   2021-11-21 12:35:49 wav      
#>  2 /volumes/bud…  106.   Safe   228-NE_2… 228-NE   2022-03-01 00:00:00 wav      
#>  3 /volumes/bud…   31.8  Safe   228-NE_2… 228-NE   2022-03-01 02:00:00 wav      
#>  4 /volumes/bud…  106.   Safe   228-NE_2… 228-NE   2022-03-01 08:59:00 wav      
#>  5 /volumes/bud…   31.8  Safe   228-NE_2… 228-NE   2022-03-01 10:29:00 wav      
#>  6 /volumes/bud…   31.8  Safe   228-NE_2… 228-NE   2022-03-01 12:00:00 wav      
#>  7 /volumes/bud…   31.8  Safe   228-NE_2… 228-NE   2022-03-01 15:00:00 wav      
#>  8 /volumes/bud…   31.8  Safe   228-NE_2… 228-NE   2022-03-01 18:17:00 wav      
#>  9 /volumes/bud…   31.8  Safe   228-NE_2… 228-NE   2022-03-01 20:17:00 wav      
#> 10 /volumes/bud…  106.   Safe   228-NE_2… 228-NE   2022-03-02 00:00:00 wav      
#> # ℹ 1,031 more rows
#> # ℹ 4 more variables: julian <dbl>, year <dbl>, gps_enabled <lgl>,
#> #   time_index <int>
…
