Acoustic pre-processing • wildrtrax
…
# Scan data
if (dir.exists(".")) {
  wt_audio_scanner(path = ".", file_type = "wav", extra_cols = T)
} else {
  'Can\'\t find this directory'
}

You might want to select recordings between certain times of day or
year, or filter recordings based on some criteria.

files %>%
  dplyr::select(-file_path)
#> # A tibble: 1,041 × 10
#>    size_Mb unsafe file_name  location recording_date_time file_type julian  year
#>      <dbl> <chr>  <chr>      <chr>    <dttm>              <chr>      <dbl> <dbl>
#>  1    3.51 Safe   228-NE_20… 228-NE   2021-11-21 12:35:49 wav          325  2021
#>  2  106.   Safe   228-NE_20… 228-NE   2022-03-01 00:00:00 wav           60  2022
#>  3   31.8  Safe   228-NE_20… 228-NE   2022-03-01 02:00:00 wav           60  2022
#>  4  106.   Safe   228-NE_20… 228-NE   2022-03-01 08:59:00 wav           60  2022
#>  5   31.8  Safe   228-NE_20… 228-NE   2022-03-01 10:29:00 wav           60  2022
#>  6   31.8  Safe   228-NE_20… 228-NE   2022-03-01 12:00:00 wav           60  2022
#>  7   31.8  Safe   228-NE_20… 228-NE   2022-03-01 15:00:00 wav           60  2022
#>  8   31.8  Safe   228-NE_20… 228-NE   2022-03-01 18:17:00 wav           60  2022
#>  9   31.8  Safe   228-NE_20… 228-NE   2022-03-01 20:17:00 wav           60  2022
#> 10  106.   Safe   228-NE_20… 228-NE   2022-03-02 00:00:00 wav           61  2022
#> # ℹ 1,031 more rows
#> # ℹ 2 more variables: gps_enabled <lgl>, time_index <int>
…
