APIs • wildrtrax
…
Downloading the WildTrax species table with
wt_get_species() also grants you access to other valuable
columns or provides a complete list of the species currently supported
by WildTrax.

# Download the WildTrax species table
spp_table <- wt_get_species()

spp_table |> arrange(species_code)
#> # A tibble: 5,109 × 6
#>    species_id species_code species_common_name       species_class species_order
#>         <dbl> <chr>        <chr>                     <chr>         <chr>        
#>  1       2780 10           Wolves, Coyotes and Alli… MAMMALIA      Carnivora    
#>  2       2705 100          Barren-ground Caribou     MAMMALIA      Artiodactyla 
#>  3       2738 105          Porcupine Caribou         MAMMALIA      Artiodactyla 
#>  4       2735 106          Peary Caribou             MAMMALIA      Artiodactyla 
#>  5       2750 107          Varying Lemming           MAMMALIA      Rodentia     
#>  6       2618 108          Bird                      AVES          NA           
#>  7       2616 109          Bear                      MAMMALIA      Carnivora    
#>  8       2694 110          Train                     NONE          NA           
#>  9       2728 114          Kermode Bear              MAMMALIA      Carnivora    
#> 10       2819 129          Opossum                   MAMMALIA      Didelphimorp…
#> # ℹ 5,099 more rows
#> # ℹ 1 more variable: species_scientific_name <chr>

WildTrax also pre-formats ARU to point count (PC) data depending on
the type of analysis you wish to perform. See the Boreal Avian Modelling project
website and GitHub repositories to find out more
on integration of avian point count and ARU data.

# As ARU format
my_report
#> # A tibble: 388 × 31
#>    organization project_id location  location_id location_buffer_m longitude
#>    <chr>             <dbl> <chr>           <dbl> <lgl>                 <dbl>
#>  1 BU                  620 CHPP-WP-1       94515 NA                    -110.
#>  2 BU                  620 CHPP-WP-1       94515 NA                    -110.
#>  3 BU                  620 CHPP-WP-1       94515 NA                    -110.
#>  4 BU                  620 CHPP-WP-1       94515 NA                    -110.
#>  5 BU                  620 CHPP-WP-1       94515 NA                    -110.
#>  6 BU                  620 CHPP-WP-1       94515 NA                    -110.
#>  7 BU                  620 CHPP-WP-1       94515 NA                    -110.
#>  8 BU                  620 CHPP-WP-1       94515 NA                    -110.
#>  9 BU                  620 CHPP-WP-1       94515 NA                    -110.
#> 10 BU                  620 CHPP-WP-1       94515 NA                    -110.
#> # ℹ 378 more rows
#> # ℹ 25 more variables: latitude <dbl>, equipment_make <lgl>,
#> #   equipment_model <lgl>, recording_id <dbl>, recording_date_time <dttm>,
#> #   task_id <dbl>, aru_task_status <chr>, task_duration <dbl>,
#> #   task_method <chr>, species_code <chr>, species_common_name <chr>,
#> #   species_scientific_name <chr>, individual_order <dbl>, tag_id <dbl>,
#> #   individual_count <chr>, vocalization <chr>, detection_time <dbl>, …
…
#>  1       686 "ABMI-Before-Afte…   152 White-throated Spa… ZONOTRICHIA ALBICOLLIS
#>  2        41 "BU-Boreal Wetlan…   297 White-throated Spa… ZONOTRICHIA ALBICOLLIS
#>  3        32 "BU-Big Grid Pilo…    90 White-throated Spa… ZONOTRICHIA ALBICOLLIS
#>  4        31 "BU-Big Grids"       794 White-throated Spa… ZONOTRICHIA ALBICOLLIS
#>  5       334 "BU-General-Commu…    57 White-throated Spa… ZONOTRICHIA ALBICOLLIS
#>  6        99 "BU-Old Growth Fo…   222 White-throated Spa… ZONOTRICHIA ALBICOLLIS
#>  7        84 "BU-Community tag…    50 White-throated Spa… ZONOTRICHIA ALBICOLLIS
#>  8        19 "ABMI-Ecosystem H…    63 White-throated Spa… ZONOTRICHIA ALBICOLLIS
#>  9        34 "ABMI-Ecosystem H…    80 White-throated Spa… ZONOTRICHIA ALBICOLLIS
#> 10         1 "ABMI-Ecosystem H…    51 White-throated Spa… ZONOTRICHIA ALBICOLLIS
#> 11        NA ""                   158 White-throated Spa… ZONOTRICHIA ALBICOLLIS
#> # ℹ abbreviated name: ¹​species_scientific_name
#> 
#> [[2]]
#> # A tibble: 1,812 × 4
#>    species_common_name    count longitude latitude
#>    <chr>                  <int>     <dbl>    <dbl>
#>  1 White-throated Sparrow     1     -113.     53.8
#>  2 White-throated Sparrow     1     -113.     54.8
#>  3 White-throated Sparrow     1     -113.     54.2
#>  4 White-throated Sparrow     4     -113.     54.7
#>  5 White-throated Sparrow     4     -113.     54.7
#>  6 White-throated Sparrow     1     -113.     54.8
#>  7 White-throated Sparrow     4     -113.     55.0
#>  8 White-throated Sparrow     1     -113.     55.1
#>  9 White-throated Sparrow     1     -113.     55.1
#> 10 White-throated Sparrow     1     -113.     55.1
#> # ℹ 1,802 more rows
…
