Chapter 2 Data pre-processing | Environmental sensor data management and analysis with R
…
# Filter to just Alberta
bcrs <- st_make_valid(bcrs) %>% filter(PROVINCE_S == "ALBERTA")

# Intersect the location with the BCRs
out <- st_intersection(locsset, bcrs) %>%
  as_tibble()

# Join it to the original tibble
locss <- locs %>%
  inner_join(., out, by = c("location" = "location"))

> locss %>% select(location, BCRNAME)

# A tibble: 5,124 × 2
   location BCRNAME                       
   <chr>    <chr>                         
 1 1-NE     TAIGA SHIELD AND HUDSON PLAINS
 2 1-NW     TAIGA SHIELD AND HUDSON PLAINS
 3 1-SE     TAIGA SHIELD AND HUDSON PLAINS
 4 1-SW     TAIGA SHIELD AND HUDSON PLAINS
 5 2-NE     BOREAL TAIGA PLAINS           
 6 2-NW     BOREAL TAIGA PLAINS           
 7 2-SE     BOREAL TAIGA PLAINS           
 8 2-SW     BOREAL TAIGA PLAINS           
 9 3-NE     BOREAL TAIGA PLAINS           
10 3-NW     BOREAL TAIGA PLAINS           
# … with 5,114 more rows
…
